[
	 {
		"profile_image_url": "http:\/\/pbs.twimg.com\/profile_images\/564149483513335809\/xJtUpgCG_normal.jpeg",
		"screen_name": "DusanBrstina",
		"name": "Dusan Brstina",
		"friends_count": 1848,
		"followers_count": 1298,
		"id_str": "1678449336"
	},
	 {
		"profile_image_url": "http:\/\/pbs.twimg.com\/profile_images\/562382038674968577\/YhtVWhPG_normal.jpeg",
		"screen_name": "Valenti72790796",
		"name": "idealno lo\u0161a",
		"friends_count": 112,
		"followers_count": 671,
		"id_str": "1227816264"
	},
	 {
		"profile_image_url": "http:\/\/pbs.twimg.com\/profile_images\/530812122268438528\/9NPOaGvD_normal.jpeg",
		"screen_name": "Ercegova",
		"name": "Maja",
		"friends_count": 998,
		"followers_count": 616,
		"id_str": "858211718"
	},
	 {
		"profile_image_url": "http:\/\/pbs.twimg.com\/profile_images\/563568911640428544\/2DmK2xbh_normal.jpeg",
		"screen_name": "AndricAndrijanA",
		"name": "Andrijana",
		"friends_count": 144,
		"followers_count": 148,
		"id_str": "482513757"
	},
	 {
		"profile_image_url": "http:\/\/pbs.twimg.com\/profile_images\/457640354997493760\/DXCtrlR5_normal.png",
		"screen_name": "borovacn",
		"name": "Nemanja Borovac",
		"friends_count": 534,
		"followers_count": 372,
		"id_str": "191469669"
	},
	 {
		"profile_image_url": "http:\/\/pbs.twimg.com\/profile_images\/1128285748\/DSC_1344-Edit_konacni_normal.jpg",
		"screen_name": "MinaColic",
		"name": "MinaC",
		"friends_count": 833,
		"followers_count": 670,
		"id_str": "117856199"
	},
	 {
		"profile_image_url": "http:\/\/pbs.twimg.com\/profile_images\/564044722092515328\/USdNzYwF_normal.jpeg",
		"screen_name": "milicakristina",
		"name": "Milica i Kristina :)",
		"friends_count": 1552,
		"followers_count": 662,
		"id_str": "2577617240"
	},
	 {
		"profile_image_url": "http:\/\/pbs.twimg.com\/profile_images\/562286542841196544\/KFWaS4fb_normal.jpeg",
		"screen_name": "UmemRodeAliHOCU",
		"name": "Cao,Cao,Aleksandra",
		"friends_count": 132,
		"followers_count": 452,
		"id_str": "2911855901"
	},
	 {
		"profile_image_url": "http:\/\/pbs.twimg.com\/profile_images\/521795515823173633\/ovfgr9tH_normal.jpeg",
		"screen_name": "markodjikanovic",
		"name": "Marko \u0110ikanovi\u0107",
		"friends_count": 904,
		"followers_count": 1761,
		"id_str": "87408604"
	},
	 {
		"profile_image_url": "http:\/\/pbs.twimg.com\/profile_images\/560847936717066240\/WHibaJXD_normal.jpeg",
		"screen_name": "silvabu2",
		"name": "jorgovanka",
		"friends_count": 261,
		"followers_count": 68,
		"id_str": "2296150159"
	},
	 {
		"profile_image_url": "http:\/\/pbs.twimg.com\/profile_images\/503539307026857985\/cokzjRQl_normal.jpeg",
		"screen_name": "jelena_laban",
		"name": "Jelena ",
		"friends_count": 339,
		"followers_count": 200,
		"id_str": "507927738"
	},
	 {
		"profile_image_url": "http:\/\/pbs.twimg.com\/profile_images\/2714748003\/dd986e0a297831f22560e65df691def2_normal.jpeg",
		"screen_name": "a_brodic",
		"name": "Ana je ",
		"friends_count": 162,
		"followers_count": 60,
		"id_str": "727255278"
	},
	 {
		"profile_image_url": "http:\/\/pbs.twimg.com\/profile_images\/560894764405383168\/Bfz_RVoo_normal.jpeg",
		"screen_name": "minjamanic9",
		"name": "minja-ninja",
		"friends_count": 112,
		"followers_count": 46,
		"id_str": "2941146184"
	},
	 {
		"profile_image_url": "http:\/\/pbs.twimg.com\/profile_images\/429088643689775104\/FMABHB4y_normal.jpeg",
		"screen_name": "seveNation_army",
		"name": "napredni sumporid",
		"friends_count": 253,
		"followers_count": 176,
		"id_str": "1440499776"
	},
	 {
		"profile_image_url": "http:\/\/pbs.twimg.com\/profile_images\/378800000229711437\/f4118d7cec48730a0d9c2811745b5b5e_normal.jpeg",
		"screen_name": "drason",
		"name": "NEGO STO ...",
		"friends_count": 384,
		"followers_count": 191,
		"id_str": "67028968"
	},
	 {
		"profile_image_url": "http:\/\/pbs.twimg.com\/profile_images\/475382401716088833\/4GHBQJUI_normal.jpeg",
		"screen_name": "baticanerandzic",
		"name": "Randzamapo",
		"friends_count": 1364,
		"followers_count": 1477,
		"id_str": "2201261971"
	},
	 {
		"profile_image_url": "http:\/\/pbs.twimg.com\/profile_images\/561880291329859584\/UgHGfXKh_normal.jpeg",
		"screen_name": "QueenSonyK",
		"name": "MagicWoman",
		"friends_count": 1312,
		"followers_count": 2471,
		"id_str": "1256493061"
	},
	 {
		"profile_image_url": "http:\/\/pbs.twimg.com\/profile_images\/536885205978464256\/AqvHzrEh_normal.jpeg",
		"screen_name": "DezInformer",
		"name": "DezInformer",
		"friends_count": 0,
		"followers_count": 676,
		"id_str": "2890610249"
	},
	 {
		"profile_image_url": "http:\/\/pbs.twimg.com\/profile_images\/532537875905015809\/TF0LxEk5_normal.png",
		"screen_name": "ljupkastevic",
		"name": "Ljupka Stevic",
		"friends_count": 65,
		"followers_count": 801,
		"id_str": "287997023"
	},
	 {
		"profile_image_url": "http:\/\/pbs.twimg.com\/profile_images\/562225969444827136\/TlXjSVKV_normal.jpeg",
		"screen_name": "BeograDZanin",
		"name": "BeograDZanin1971",
		"friends_count": 1971,
		"followers_count": 676,
		"id_str": "3012127612"
	},
	 {
		"profile_image_url": "http:\/\/pbs.twimg.com\/profile_images\/378800000797313326\/58f0717c16242238e4c35f1ec8d47a27_normal.jpeg",
		"screen_name": "dobermanbg",
		"name": "Blazen Petrovic",
		"friends_count": 1718,
		"followers_count": 974,
		"id_str": "842328498"
	},
	 {
		"profile_image_url": "http:\/\/pbs.twimg.com\/profile_images\/1977088503\/JA_normal.jpg",
		"screen_name": "Maja_Milosevic",
		"name": "Maja_Milosevic",
		"friends_count": 252,
		"followers_count": 119,
		"id_str": "58768281"
	},
	 {
		"profile_image_url": "http:\/\/pbs.twimg.com\/profile_images\/542333570522415104\/KSdC46Ug_normal.jpeg",
		"screen_name": "Hitlers_neffe",
		"name": "Jos jedna Maleficent",
		"friends_count": 1190,
		"followers_count": 804,
		"id_str": "2912776851"
	},
	 {
		"profile_image_url": "http:\/\/pbs.twimg.com\/profile_images\/561296854852190210\/MeecnRSP_normal.png",
		"screen_name": "NadjiNekrentine",
		"name": "NadjiNekretnine",
		"friends_count": 1961,
		"followers_count": 341,
		"id_str": "3006622163"
	},
	 {
		"profile_image_url": "http:\/\/pbs.twimg.com\/profile_images\/564219294377340928\/6glGxAYx_normal.jpeg",
		"screen_name": "disiz_96",
		"name": "\u2605 Colucci \u2605",
		"friends_count": 2000,
		"followers_count": 563,
		"id_str": "3007821057"
	},
	 {
		"profile_image_url": "http:\/\/pbs.twimg.com\/profile_images\/563440106854678528\/DuXBM2Ig_normal.jpeg",
		"screen_name": "bogavac_marko",
		"name": "marko bogavac",
		"friends_count": 915,
		"followers_count": 170,
		"id_str": "3020425995"
	},
	 {
		"profile_image_url": "http:\/\/pbs.twimg.com\/profile_images\/558611768381931521\/YXtNUZjY_normal.png",
		"screen_name": "TrolChina",
		"name": "TrolChina",
		"friends_count": 1328,
		"followers_count": 462,
		"id_str": "2994073431"
	},
	 {
		"profile_image_url": "http:\/\/pbs.twimg.com\/profile_images\/563651596853055488\/vcgwTia4_normal.jpeg",
		"screen_name": "finsaam",
		"name": "mu\u0161karac bez imena",
		"friends_count": 1108,
		"followers_count": 1082,
		"id_str": "1096168645"
	},
	 {
		"profile_image_url": "http:\/\/pbs.twimg.com\/profile_images\/561688998390005761\/8HtNnB95_normal.jpeg",
		"screen_name": "zutaa_li",
		"name": "malaricnikomarac",
		"friends_count": 584,
		"followers_count": 102,
		"id_str": "3008954122"
	},
	 {
		"profile_image_url": "http:\/\/pbs.twimg.com\/profile_images\/561991742031818753\/3BD2a3XT_normal.jpeg",
		"screen_name": "KatherineSerbia",
		"name": "ONA SA VELIKIM SRCEM",
		"friends_count": 3550,
		"followers_count": 3267,
		"id_str": "1357314146"
	},
	 {
		"profile_image_url": "http:\/\/pbs.twimg.com\/profile_images\/546967469227655168\/33KACRQx_normal.jpeg",
		"screen_name": "irina_ivkovic",
		"name": "Irina ",
		"friends_count": 773,
		"followers_count": 664,
		"id_str": "2900464959"
	},
	 {
		"profile_image_url": "http:\/\/pbs.twimg.com\/profile_images\/536447665127432192\/SV4YB77x_normal.jpeg",
		"screen_name": "party_manijak",
		"name": "Reci 8",
		"friends_count": 1015,
		"followers_count": 2011,
		"id_str": "501701098"
	},
	 {
		"profile_image_url": "http:\/\/pbs.twimg.com\/profile_images\/562302258470080512\/TLJkg9zb_normal.png",
		"screen_name": "MindStormingWS",
		"name": "Web Majstori!",
		"friends_count": 2001,
		"followers_count": 429,
		"id_str": "2544280190"
	},
	 {
		"profile_image_url": "http:\/\/pbs.twimg.com\/profile_images\/1802116312\/biohazard_normal.jpeg",
		"screen_name": "tmilds",
		"name": "Tercian J. Milds",
		"friends_count": 713,
		"followers_count": 605,
		"id_str": "472001657"
	},
	 {
		"profile_image_url": "http:\/\/pbs.twimg.com\/profile_images\/2692505626\/2cfdfd85cf34771fcfc7119719ffec7a_normal.png",
		"screen_name": "Emilijanko",
		"name": "Emilijanko Oko Moje ",
		"friends_count": 273,
		"followers_count": 38,
		"id_str": "480562698"
	},
	 {
		"profile_image_url": "http:\/\/pbs.twimg.com\/profile_images\/563012962135605248\/88zAfDt6_normal.jpeg",
		"screen_name": "akiArijan",
		"name": "Aki",
		"friends_count": 105,
		"followers_count": 48,
		"id_str": "2760647715"
	},
	 {
		"profile_image_url": "http:\/\/pbs.twimg.com\/profile_images\/520368696523362305\/H8z1CRJY_normal.jpeg",
		"screen_name": "off_za_sovinist",
		"name": "Skaloni",
		"friends_count": 292,
		"followers_count": 2227,
		"id_str": "2433594397"
	},
	 {
		"profile_image_url": "http:\/\/pbs.twimg.com\/profile_images\/534789674431041536\/ykBEu8JY_normal.jpeg",
		"screen_name": "suflerka_blog",
		"name": "Suflerka",
		"friends_count": 676,
		"followers_count": 403,
		"id_str": "2836035520"
	},
	 {
		"profile_image_url": "http:\/\/pbs.twimg.com\/profile_images\/558946020143267841\/X6yNmnTM_normal.png",
		"screen_name": "vezice_net",
		"name": "Vezice.net",
		"friends_count": 1082,
		"followers_count": 661,
		"id_str": "2287050942"
	},
	 {
		"profile_image_url": "http:\/\/pbs.twimg.com\/profile_images\/553310432530669568\/eXpY-Qxc_normal.jpeg",
		"screen_name": "Ari_Arijana_",
		"name": "Arijana",
		"friends_count": 1859,
		"followers_count": 2052,
		"id_str": "2964846999"
	},
	 {
		"profile_image_url": "http:\/\/pbs.twimg.com\/profile_images\/564342216617758721\/j78BzJ3n_normal.jpeg",
		"screen_name": "ExintaEnnea",
		"name": "TOVARNA MAZGA",
		"friends_count": 68,
		"followers_count": 107,
		"id_str": "3009446326"
	},
	 {
		"profile_image_url": "http:\/\/pbs.twimg.com\/profile_images\/552914489155522560\/hMN96lkq_normal.jpeg",
		"screen_name": "NEnormalneMisli",
		"name": "Prorok MuaMed",
		"friends_count": 753,
		"followers_count": 608,
		"id_str": "2523025196"
	},
	 {
		"profile_image_url": "http:\/\/pbs.twimg.com\/profile_images\/562704243077820416\/UaLy3Zbz_normal.jpeg",
		"screen_name": "KrejziMilica",
		"name": "Colombiana",
		"friends_count": 245,
		"followers_count": 81,
		"id_str": "3015198365"
	},
	 {
		"profile_image_url": "http:\/\/pbs.twimg.com\/profile_images\/548477194771501056\/ds3DSk-R_normal.jpeg",
		"screen_name": "Nemanja_Srb",
		"name": "\u041d\u0435\u043c\u0430\u045a\u0430 \u041d\u0435\u0434\u0435\u0459\u043a\u043e\u0432\u0438\u045b",
		"friends_count": 3664,
		"followers_count": 4414,
		"id_str": "406502953"
	},
	 {
		"profile_image_url": "http:\/\/pbs.twimg.com\/profile_images\/556556044298506240\/4faNny2n_normal.jpeg",
		"screen_name": "BeeShaper",
		"name": "BeeShaper",
		"friends_count": 5014,
		"followers_count": 7262,
		"id_str": "1463362118"
	},
	 {
		"profile_image_url": "http:\/\/pbs.twimg.com\/profile_images\/520736787510329344\/zGaEh4dC_normal.jpeg",
		"screen_name": "lelavenice",
		"name": "Le La",
		"friends_count": 456,
		"followers_count": 112,
		"id_str": "2412230019"
	},
	 {
		"profile_image_url": "http:\/\/pbs.twimg.com\/profile_images\/540921767020466177\/U889BnyT_normal.jpeg",
		"screen_name": "AniticaM",
		"name": "To sam zapravo ja",
		"friends_count": 103,
		"followers_count": 86,
		"id_str": "405766276"
	},
	 {
		"profile_image_url": "http:\/\/pbs.twimg.com\/profile_images\/495292967331299333\/vrm8MaCz_normal.jpeg",
		"screen_name": "CaneGeorgievski",
		"name": "Cane Georgievski",
		"friends_count": 821,
		"followers_count": 145,
		"id_str": "2731002988"
	},
	 {
		"profile_image_url": "http:\/\/pbs.twimg.com\/profile_images\/525760110724149249\/mnl6BxDl_normal.jpeg",
		"screen_name": "malisic6",
		"name": "Milica ",
		"friends_count": 1791,
		"followers_count": 1096,
		"id_str": "2147551475"
	},
	 {
		"profile_image_url": "http:\/\/pbs.twimg.com\/profile_images\/524135007657660416\/TYmM4rNJ_normal.jpeg",
		"screen_name": "AvvocatoDiabolo",
		"name": "Aleksandar Vu\u010dkovi\u0107",
		"friends_count": 865,
		"followers_count": 1070,
		"id_str": "2865994411"
	},
	 {
		"profile_image_url": "http:\/\/pbs.twimg.com\/profile_images\/435705831280373760\/8CXtaxen_normal.jpeg",
		"screen_name": "Elverojaguar",
		"name": "The Cult Cat",
		"friends_count": 113142,
		"followers_count": 107789,
		"id_str": "580857186"
	},
	 {
		"profile_image_url": "http:\/\/pbs.twimg.com\/profile_images\/560508783126794240\/dbDwYI7s_normal.png",
		"screen_name": "dragankordic",
		"name": "Dragan Kordi\u0107",
		"friends_count": 66,
		"followers_count": 69,
		"id_str": "336518006"
	},
	 {
		"profile_image_url": "http:\/\/pbs.twimg.com\/profile_images\/538598864698494976\/bJCffpM7_normal.jpeg",
		"screen_name": "VelikaZena",
		"name": "Ako neko pita-ja sam",
		"friends_count": 792,
		"followers_count": 280,
		"id_str": "485896455"
	},
	 {
		"profile_image_url": "http:\/\/pbs.twimg.com\/profile_images\/559470417388126208\/C5swwjNE_normal.jpeg",
		"screen_name": "diidlina",
		"name": "Plivkaaaa",
		"friends_count": 533,
		"followers_count": 829,
		"id_str": "1719500257"
	},
	 {
		"profile_image_url": "http:\/\/pbs.twimg.com\/profile_images\/557359700485095424\/HAn9LAuQ_normal.jpeg",
		"screen_name": "AnastasijaaMi",
		"name": "Za_Za",
		"friends_count": 313,
		"followers_count": 587,
		"id_str": "1595884500"
	},
	 {
		"profile_image_url": "http:\/\/pbs.twimg.com\/profile_images\/564102280686100480\/Pu9gMH8Z_normal.jpeg",
		"screen_name": "eirenedj",
		"name": "Carmen",
		"friends_count": 536,
		"followers_count": 1266,
		"id_str": "1308440563"
	},
	 {
		"profile_image_url": "http:\/\/pbs.twimg.com\/profile_images\/561246649973223424\/GQQ_uanu_normal.jpeg",
		"screen_name": "tekalica",
		"name": "Te\u0458\u043e \u0414\u043e\u0440\u0430\u0445",
		"friends_count": 1419,
		"followers_count": 931,
		"id_str": "844584080"
	},
	 {
		"profile_image_url": "http:\/\/pbs.twimg.com\/profile_images\/378800000479757778\/4e2e9b82c5dce81f553a606733520c01_normal.jpeg",
		"screen_name": "jovana_panic",
		"name": "Jovana Panic",
		"friends_count": 369,
		"followers_count": 480,
		"id_str": "349869356"
	},
	 {
		"profile_image_url": "http:\/\/pbs.twimg.com\/profile_images\/3302912205\/e0ea5f6d691c7ef2ee4886b60365b242_normal.jpeg",
		"screen_name": "vladanik",
		"name": "Vladimir Niki\u0107",
		"friends_count": 987,
		"followers_count": 1550,
		"id_str": "47363257"
	},
	 {
		"profile_image_url": "http:\/\/pbs.twimg.com\/profile_images\/1202009931\/DSC06257_normal.jpg",
		"screen_name": "Bubullina",
		"name": "Marija Dukic",
		"friends_count": 876,
		"followers_count": 3870,
		"id_str": "28160002"
	},
	 {
		"profile_image_url": "http:\/\/pbs.twimg.com\/profile_images\/563672150809128963\/nsm0tSz-_normal.jpeg",
		"screen_name": "JKamatovic",
		"name": "Jasna Komatovic",
		"friends_count": 803,
		"followers_count": 4693,
		"id_str": "22129377"
	},
	 {
		"profile_image_url": "http:\/\/pbs.twimg.com\/profile_images\/548881890053455873\/E66J2j_Y_normal.jpeg",
		"screen_name": "miskolino",
		"name": "Milorad To\u0161i\u0107",
		"friends_count": 1717,
		"followers_count": 3013,
		"id_str": "1728001"
	},
	 {
		"profile_image_url": "http:\/\/pbs.twimg.com\/profile_images\/563475161228537856\/4wYVsEkd_normal.jpeg",
		"screen_name": "Suzanaaa88",
		"name": "Suzana Kati\u0107",
		"friends_count": 1009,
		"followers_count": 1072,
		"id_str": "1735366909"
	},
	 {
		"profile_image_url": "http:\/\/pbs.twimg.com\/profile_images\/561480820976664578\/2ooNOf_p_normal.jpeg",
		"screen_name": "Dekibor",
		"name": "Dejan",
		"friends_count": 297,
		"followers_count": 199,
		"id_str": "3004739977"
	},
	 {
		"profile_image_url": "http:\/\/pbs.twimg.com\/profile_images\/559580815630168064\/SA-rTXUf_normal.jpeg",
		"screen_name": "Opozicionari",
		"name": "Opozicionar",
		"friends_count": 2008,
		"followers_count": 1882,
		"id_str": "2995706300"
	},
	 {
		"profile_image_url": "http:\/\/pbs.twimg.com\/profile_images\/563350170230730753\/iuMHnXWt_normal.png",
		"screen_name": "ReciGlasno",
		"name": "Katarina Djukic",
		"friends_count": 697,
		"followers_count": 789,
		"id_str": "2850348387"
	},
	 {
		"profile_image_url": "http:\/\/pbs.twimg.com\/profile_images\/552123783507476480\/_hETfBh0_normal.jpeg",
		"screen_name": "Baby22Blues",
		"name": "Black Lady",
		"friends_count": 2800,
		"followers_count": 2671,
		"id_str": "2811509225"
	},
	 {
		"profile_image_url": "http:\/\/pbs.twimg.com\/profile_images\/558900823821139968\/60YnyxNh_normal.jpeg",
		"screen_name": "BuMilos",
		"name": "Milos",
		"friends_count": 733,
		"followers_count": 457,
		"id_str": "480770456"
	},
	 {
		"profile_image_url": "http:\/\/pbs.twimg.com\/profile_images\/544416537789349888\/Lyq6jHOb_normal.jpeg",
		"screen_name": "visnja_f",
		"name": "Visnja Filipovic",
		"friends_count": 617,
		"followers_count": 896,
		"id_str": "1561583455"
	},
	 {
		"profile_image_url": "http:\/\/pbs.twimg.com\/profile_images\/560220957629890560\/qoYLSX-l_normal.png",
		"screen_name": "BalkanGag",
		"name": "BalkanGag",
		"friends_count": 1955,
		"followers_count": 540,
		"id_str": "2969514928"
	},
	 {
		"profile_image_url": "http:\/\/pbs.twimg.com\/profile_images\/496409338869989377\/2KcqAG0W_normal.jpeg",
		"screen_name": "tibilingli",
		"name": "tibilingli",
		"friends_count": 351,
		"followers_count": 88,
		"id_str": "2733675160"
	},
	 {
		"profile_image_url": "http:\/\/pbs.twimg.com\/profile_images\/489109726039261184\/bEc4iQLg_normal.jpeg",
		"screen_name": "sretenovitch",
		"name": "Nikola Sretenovic",
		"friends_count": 2881,
		"followers_count": 3052,
		"id_str": "131776844"
	},
	 {
		"profile_image_url": "http:\/\/pbs.twimg.com\/profile_images\/558662700704993281\/c8rmDMjW_normal.jpeg",
		"screen_name": "ForumMladihNove",
		"name": "Forum Mladih Nove",
		"friends_count": 686,
		"followers_count": 661,
		"id_str": "2918571197"
	},
	 {
		"profile_image_url": "http:\/\/pbs.twimg.com\/profile_images\/3296788257\/c655585c1d46f5432591f271dcafb572_normal.jpeg",
		"screen_name": "Vesna_Radojevic",
		"name": "Vesna Radojevic",
		"friends_count": 331,
		"followers_count": 836,
		"id_str": "469646022"
	},
	 {
		"profile_image_url": "http:\/\/pbs.twimg.com\/profile_images\/556199304654618624\/6qsTDED__normal.jpeg",
		"screen_name": "senkaandj",
		"name": "Senka",
		"friends_count": 150,
		"followers_count": 151,
		"id_str": "229999597"
	},
	 {
		"profile_image_url": "http:\/\/pbs.twimg.com\/profile_images\/554299471165546496\/4tWkLZX5_normal.jpeg",
		"screen_name": "Marinija_",
		"name": "Marina Bulatovi\u0107",
		"friends_count": 176,
		"followers_count": 201,
		"id_str": "50637057"
	},
	 {
		"profile_image_url": "http:\/\/pbs.twimg.com\/profile_images\/545122817612607488\/q6_LzZJR_normal.jpeg",
		"screen_name": "goranbarun",
		"name": "expolicajac",
		"friends_count": 508,
		"followers_count": 482,
		"id_str": "2547660822"
	},
	 {
		"profile_image_url": "http:\/\/pbs.twimg.com\/profile_images\/563411520152174592\/93z2EThR_normal.jpeg",
		"screen_name": "novinarka_",
		"name": "novinarka",
		"friends_count": 628,
		"followers_count": 1183,
		"id_str": "224746860"
	},
	 {
		"profile_image_url": "http:\/\/pbs.twimg.com\/profile_images\/563793059737915392\/CpAFTyrl_normal.jpeg",
		"screen_name": "HristinaHris",
		"name": "HristinaStojiljkovic",
		"friends_count": 82,
		"followers_count": 1665,
		"id_str": "406557987"
	},
	 {
		"profile_image_url": "http:\/\/pbs.twimg.com\/profile_images\/553269741326835712\/hj8bL-cD_normal.jpeg",
		"screen_name": "ZlaaTokosa",
		"name": "Adna Deli\u0107",
		"friends_count": 3649,
		"followers_count": 5449,
		"id_str": "1114722408"
	},
	 {
		"profile_image_url": "http:\/\/pbs.twimg.com\/profile_images\/561243750274695169\/ET8L85At_normal.jpeg",
		"screen_name": "micazmica",
		"name": "Naturalizovana",
		"friends_count": 118,
		"followers_count": 197,
		"id_str": "38232264"
	},
	 {
		"profile_image_url": "http:\/\/pbs.twimg.com\/profile_images\/563145870225731584\/wAfzYkiR_normal.jpeg",
		"screen_name": "Kaca_TheBoss",
		"name": "Ti Si Moj Opijum",
		"friends_count": 379,
		"followers_count": 504,
		"id_str": "1889276581"
	},
	 {
		"profile_image_url": "http:\/\/pbs.twimg.com\/profile_images\/1469370939\/433638_vb_normal.jpg",
		"screen_name": "gjovanovic",
		"name": "\u0413\u043e\u0440\u0430\u043d \u0408\u043e\u0432\u0430\u043d\u043e\u0432\u0438\u045b",
		"friends_count": 472,
		"followers_count": 194,
		"id_str": "124544059"
	},
	 {
		"profile_image_url": "http:\/\/pbs.twimg.com\/profile_images\/548158671008440320\/J2e4HL3l_normal.jpeg",
		"screen_name": "svemircica",
		"name": "Me Myself And I",
		"friends_count": 2,
		"followers_count": 4,
		"id_str": "2940904649"
	},
	 {
		"profile_image_url": "http:\/\/pbs.twimg.com\/profile_images\/563057593166614528\/hhuwezyP_normal.jpeg",
		"screen_name": "montipajtonovka",
		"name": "Be Polite",
		"friends_count": 148,
		"followers_count": 168,
		"id_str": "398784382"
	},
	 {
		"profile_image_url": "http:\/\/pbs.twimg.com\/profile_images\/522148156268904448\/zTQk1G1F_normal.jpeg",
		"screen_name": "MariadeMoll",
		"name": ":={MaYa}=:",
		"friends_count": 561,
		"followers_count": 243,
		"id_str": "15503395"
	},
	 {
		"profile_image_url": "http:\/\/pbs.twimg.com\/profile_images\/2311004751\/5uhhj06ub3kh0dup010s_normal.jpeg",
		"screen_name": "Zebrazebra777",
		"name": "Olga",
		"friends_count": 1997,
		"followers_count": 910,
		"id_str": "170622604"
	},
	 {
		"profile_image_url": "http:\/\/pbs.twimg.com\/profile_images\/549314608461119488\/UQB9iyo0_normal.jpeg",
		"screen_name": "TaocKosmara",
		"name": "taoci kosmara",
		"friends_count": 246,
		"followers_count": 193,
		"id_str": "2946461301"
	},
	 {
		"profile_image_url": "http:\/\/pbs.twimg.com\/profile_images\/562995481094414336\/11Cbikgw_normal.jpeg",
		"screen_name": "kacacrnka",
		"name": "Kaca Krstonosic",
		"friends_count": 68,
		"followers_count": 249,
		"id_str": "1638335798"
	},
	 {
		"profile_image_url": "http:\/\/pbs.twimg.com\/profile_images\/497260994280701952\/ivkrTl4Y_normal.jpeg",
		"screen_name": "Stefancacak89",
		"name": "Stefan Pajovi\u0107",
		"friends_count": 1479,
		"followers_count": 818,
		"id_str": "1601876834"
	},
	 {
		"profile_image_url": "http:\/\/pbs.twimg.com\/profile_images\/418019574575939584\/n_bqfqHb_normal.jpeg",
		"screen_name": "ThinkConfucius",
		"name": "Confucius",
		"friends_count": 26232,
		"followers_count": 39843,
		"id_str": "253011550"
	},
	 {
		"profile_image_url": "http:\/\/pbs.twimg.com\/profile_images\/429266890955821056\/yFGJBxg1_normal.jpeg",
		"screen_name": "ConfuciusPosts",
		"name": "Confucius",
		"friends_count": 36257,
		"followers_count": 36164,
		"id_str": "253004328"
	},
	 {
		"profile_image_url": "http:\/\/abs.twimg.com\/sticky\/default_profile_images\/default_profile_4_normal.png",
		"screen_name": "NenaSavic1",
		"name": "Nena Savic",
		"friends_count": 264,
		"followers_count": 96,
		"id_str": "2266316994"
	},
	 {
		"profile_image_url": "http:\/\/pbs.twimg.com\/profile_images\/544960263451996160\/3ISA5Ao4_normal.jpeg",
		"screen_name": "macxkyy",
		"name": "Pustinjska kraljica",
		"friends_count": 3412,
		"followers_count": 4027,
		"id_str": "93244451"
	},
	 {
		"profile_image_url": "http:\/\/pbs.twimg.com\/profile_images\/554206114158346242\/igF_OMBj_normal.png",
		"screen_name": "sne9sne9sne9",
		"name": "# Discover ",
		"friends_count": 223,
		"followers_count": 137,
		"id_str": "2972284636"
	},
	 {
		"profile_image_url": "http:\/\/pbs.twimg.com\/profile_images\/534867913895735296\/tbHRAObt_normal.png",
		"screen_name": "JavascRRipt",
		"name": "Javascript",
		"friends_count": 3056,
		"followers_count": 3484,
		"id_str": "2883392213"
	},
	 {
		"profile_image_url": "http:\/\/pbs.twimg.com\/profile_images\/520993514478256128\/80HNNQWj_normal.jpeg",
		"screen_name": "DBoberic",
		"name": "Dragana Boberic",
		"friends_count": 21,
		"followers_count": 20,
		"id_str": "2823181863"
	},
	 {
		"profile_image_url": "http:\/\/pbs.twimg.com\/profile_images\/430244549282107392\/HT5ID4_N_normal.jpeg",
		"screen_name": "jaksicmarko",
		"name": "Marko Jaksic*",
		"friends_count": 292,
		"followers_count": 1606,
		"id_str": "345345845"
	},
	 {
		"profile_image_url": "http:\/\/pbs.twimg.com\/profile_images\/561832486347755521\/r12TOrEe_normal.jpeg",
		"screen_name": "kawaii_anarhija",
		"name": "\u010dikorita",
		"friends_count": 218,
		"followers_count": 345,
		"id_str": "2451846572"
	},
	 {
		"profile_image_url": "http:\/\/pbs.twimg.com\/profile_images\/515952199374221315\/mdcw8iH__normal.jpeg",
		"screen_name": "tanjadavidovic1",
		"name": "tanja davidovic",
		"friends_count": 1506,
		"followers_count": 1883,
		"id_str": "1606639105"
	}
]